^C:\USERS\ROEY\DOCUMENTS\VISUAL STUDIO 2013\PROJECTS\CONSOLEAPPLICATION1\CONSOLEAPPLICATION1\STDAFX.CPP
C:\USERS\ROEY\DOCUMENTS\VISUAL STUDIO 2013\PROJECTS\CONSOLEAPPLICATION1\CONSOLEAPPLICATION1\X64\DEBUG\CONSOLEAPPLICATION1.PCH
C:\USERS\ROEY\DOCUMENTS\VISUAL STUDIO 2013\PROJECTS\CONSOLEAPPLICATION1\CONSOLEAPPLICATION1\X64\DEBUG\VC120.PDB
C:\USERS\ROEY\DOCUMENTS\VISUAL STUDIO 2013\PROJECTS\CONSOLEAPPLICATION1\CONSOLEAPPLICATION1\X64\DEBUG\VC120.IDB
C:\USERS\ROEY\DOCUMENTS\VISUAL STUDIO 2013\PROJECTS\CONSOLEAPPLICATION1\CONSOLEAPPLICATION1\X64\DEBUG\STDAFX.OBJ
^C:\USERS\ROEY\DOCUMENTS\VISUAL STUDIO 2013\PROJECTS\CONSOLEAPPLICATION1\CONSOLEAPPLICATION1\CONSOLEAPPLICATION1.C
C:\USERS\ROEY\DOCUMENTS\VISUAL STUDIO 2013\PROJECTS\CONSOLEAPPLICATION1\CONSOLEAPPLICATION1\X64\DEBUG\VC120.PDB
^C:\USERS\ROEY\DOCUMENTS\VISUAL STUDIO 2013\PROJECTS\CONSOLEAPPLICATION1\CONSOLEAPPLICATION1\CONSOLEAPPLICATION1.CPP
C:\USERS\ROEY\DOCUMENTS\VISUAL STUDIO 2013\PROJECTS\CONSOLEAPPLICATION1\CONSOLEAPPLICATION1\X64\DEBUG\VC120.PDB
C:\USERS\ROEY\DOCUMENTS\VISUAL STUDIO 2013\PROJECTS\CONSOLEAPPLICATION1\CONSOLEAPPLICATION1\X64\DEBUG\VC120.IDB
C:\USERS\ROEY\DOCUMENTS\VISUAL STUDIO 2013\PROJECTS\CONSOLEAPPLICATION1\CONSOLEAPPLICATION1\X64\DEBUG\CONSOLEAPPLICATION1.OBJ
