^C:\USERS\ROEY\DOCUMENTS\VISUAL STUDIO 2013\PROJECTS\MYDLL\MYDLL\STDAFX.CPP
/c /ZI /nologo /W3 /WX- /sdl /Od /Oy- /D WIN32 /D _CONSOLE /D _LIB /D _DEBUG /D _WINDOWS /D _USRDLL /D MYDLL_EXPORTS /D _WINDLL /D _UNICODE /D UNICODE /Gm /EHsc /RTC1 /MDd /GS /fp:precise /Zc:wchar_t /Zc:forScope /Yc"stdafx.h" /Fp"DEBUG\MYDLL.PCH" /Fo"DEBUG\\" /Fd"DEBUG\VC120.PDB" /Gd /TP /analyze- C:\USERS\ROEY\DOCUMENTS\VISUAL STUDIO 2013\PROJECTS\MYDLL\MYDLL\STDAFX.CPP
^C:\USERS\ROEY\DOCUMENTS\VISUAL STUDIO 2013\PROJECTS\MYDLL\MYDLL\DLLMAIN.C
/c /ZI /nologo /W3 /WX- /sdl /Od /Oy- /D WIN32 /D _CONSOLE /D _LIB /D _DEBUG /D _WINDOWS /D _USRDLL /D MYDLL_EXPORTS /D _WINDLL /D _UNICODE /D UNICODE /Gm /EHsc /RTC1 /MDd /GS /fp:precise /Zc:wchar_t /Zc:forScope /Fo"DEBUG\\" /Fd"DEBUG\VC120.PDB" /Gd /TC /analyze- C:\USERS\ROEY\DOCUMENTS\VISUAL STUDIO 2013\PROJECTS\MYDLL\MYDLL\DLLMAIN.C
^C:\USERS\ROEY\DOCUMENTS\VISUAL STUDIO 2013\PROJECTS\MYDLL\MYDLL\DLLMAIN.CPP
/c /ZI /nologo /W3 /WX- /sdl /Od /Oy- /D WIN32 /D _CONSOLE /D _LIB /D _DEBUG /D _WINDOWS /D _USRDLL /D MYDLL_EXPORTS /D _WINDLL /D _UNICODE /D UNICODE /Gm /EHsc /RTC1 /MDd /GS /fp:precise /Zc:wchar_t /Zc:forScope /Fo"DEBUG\\" /Fd"DEBUG\VC120.PDB" /Gd /TP /analyze- C:\USERS\ROEY\DOCUMENTS\VISUAL STUDIO 2013\PROJECTS\MYDLL\MYDLL\DLLMAIN.CPP
